{
  "compiler": {
    "program": "g++",
    "files": [
      "lab6.cpp",
      "Date.cpp"
    ],
    "flags": { "-o": "DATES", "-Wall": "" , "-std=c++11": ""},
    "make": { }
  },
  "runner": {
    "executable": "DATES",
    "valgrind": false,
    "runs": [
      {
        "name": "run1",
        "cla": { "test_dates.txt": "", "out.txt": "" },
        "input": []        
      }
    ],
    "timeout": 3
  },
  "grader": {
    "script": "configs.1021-spring18.labs.lab6.lab6",
    "package": "configs",
    "rubric": {
      "runs":                 { "max": 25, "value": 0, "comment": "" },
      "compiles":             { "max": 25, "value": 0, "comment": "" },
      "input-output":         { "max": 30, "value": 0, "comment": "" },
      "sorted":               { "max": 20, "value": 0, "comment": "" }
    }
  }
}
